How to use tidy principles for genomic ranges manipulation • BiocHowTo
…
# Download the xlsx file from Ensembl and cache it locally using BiocFileCache
xlsx_url <- "https://genome.cshlp.org/content/suppl/2020/11/16/gr.265934.120.DC1/Supplemental_Table_S2.xlsx"
xlsx_file <- bfcrpath(bfc, xlsx_url)

# The file is now downloaded and available
xlsx_file
#>                                                                                                   BFC1 
#> "/Users/runner/Library/Caches/org.R-project.R/R/BiocFileCache/39b123f5aca2_Supplemental_Table_S2.xlsx"

Excel files can be read into tibbles in R thanks to the read_xlsx() function from the readxl package.

library(readxl)
tbl <- read_xlsx(xlsx_file, sheet = "ATAC_metrics", skip = 2)
tbl
#> # A tibble: 47,514 × 32
#>    chrom_ce11 start_ce11 end_ce11 annot_dev_age_tissues annot_dev_age_tissues_…¹
#>    <chr>           <dbl>    <dbl> <chr>                 <chr>                   
#>  1 chrI              328      478 other_element         no_transcription        
#>  2 chrI              864     1014 other_element         no_transcription        
#>  3 chrI             1901     2051 putative_enhancer     transcription_initiation
#>  4 chrI             3827     3977 non-coding_RNA        unassigned_promoter     
#>  5 chrI             4277     4427 putative_enhancer     no_transcription        
#>  6 chrI            11273    11423 coding_promoter       coding_promoter         
#>  7 chrI            13071    13221 putative_enhancer     no_transcription        
#>  8 chrI            15431    15581 unassigned_promoter   transcription_initiation
#>  9 chrI            15723    15873 putative_enhancer     transcription_initiation
#> 10 chrI            16075    16225 other_element         no_transcription        
#> # ℹ 47,504 more rows
#> # ℹ abbreviated name: ¹​annot_dev_age_tissues_fwd
#> # ℹ 27 more variables: annot_dev_age_tissues_rev <chr>,
#> #   promoter_gene_id_fwd <chr>, promoter_locus_id_fwd <chr>,
#> #   promoter_gene_biotype_fwd <chr>, promoter_gene_id_rev <chr>,
#> #   promoter_locus_id_rev <chr>, promoter_gene_biotype_rev <chr>,
#> #   associated_gene_id <chr>, associated_locus_id <chr>, tss_fwd_ce11 <dbl>, …
…
